Studies of reconstructing floodplain use via otolith sulfur isotope — bt.belltilcock.2021b • MFishBTdat
…
    Author

    Liuyong Ding, ly_ding@126.com

    Concepts

    otolith, isotopic ratios, d34S

    Examples

### copy data into 'dat'
dat <- bt.belltilcock.2021b
tibble::tibble(dat)
#> # A tibble: 99 × 8
#>    fish_id  sample spot_number   age distance spot_designation d34scor_vcdt w_std_err_95t_permil
#>    <chr>    <chr>  <chr>       <int>    <int> <chr>                   <dbl>                <dbl>
#>  1 NP163500 CH-1   CH-1-EDGE      NA     -440 River                    5.67                0.879
#>  2 NP163500 CH-1   CH-1.2         NA     -400 Transition               8.26                0.956
#>  3 NP163500 CH-1   CH-1.3         NA     -360 Hatchery                13.5                 1.06 
#>  4 NP163500 CH-1   CH-1.4         NA     -320 Hatchery                13.6                 1.23 
#>  5 NP163500 CH-1   CH-1.5         NA     -280 Hatchery                13.9                 0.898
#>  6 NP163500 CH-1   CH-1.6         NA     -240 Hatchery                14.1                 1.50 
#>  7 NP163500 CH-1   CH-1.7         NA     -200 Hatchery                15.8                 1.21 
#>  8 NP163500 CH-1   CH-1.8         NA     -160 Hatchery                15.1                 1.13 
#>  9 NP163500 CH-1   CH-1.9         NA     -120 Hatchery                13.4                 1.02 
#> 10 NP163500 CH-1   CH-1.10        NA      -80 Hatchery                16.5                 0.984
#> # … with 89 more rows
…
