Lifetime movement history of a potamodromous freshwater fish — bt.barrow.2021 • MFishBTdat
…
    Author

    Liuyong Ding, ly_ding@126.com

    Concepts

    otolith, vertebra, trace element, stable isotope, Sr8786, Sr/Ca, d34S

    Examples

### copy data into 'dat'
dat <- bt.barrow.2021
tibble::tibble(dat)
#> # A tibble: 75,343 × 7
#>    fish_id_anon distance oto_sr8786   age date       capture_location length
#>    <chr>           <int>      <dbl> <int> <chr>      <chr>             <int>
#>  1 fish_32             0      0.707     7 29/04/2016 Lower.Murray        361
#>  2 fish_33             0      0.708     5 29/04/2016 Lower.Murray        253
#>  3 fish_34             0      0.713    19 29/04/2016 Lower.Murray        362
#>  4 fish_35             0      0.707     6 29/04/2016 Lower.Murray        409
#>  5 fish_36             0      0.713    19 29/04/2016 Lower.Murray        404
#>  6 fish_37             0      0.707     5 29/04/2016 Lower.Murray        239
#>  7 fish_38             0      0.708     5 6/04/2016  Lower.Murray        335
#>  8 fish_39             0      0.713    19 7/04/2016  Lower.Murray        373
#>  9 fish_40             0      0.714    19 12/04/2016 Lower.Murray        379
#> 10 fish_41             0      0.709     6 12/04/2016 Lower.Murray        272
#> # ℹ 75,333 more rows
…
