Quantifying estuarine habitat use of Chinook salmon via otolith analyses — bt.chalifour.2021 • MFishBTdat
…
    Author

    Liuyong Ding, ly_ding@126.com

    Concepts

    otolith, bulk elements, Sr/Ca, Ba/Ca

    Examples

### copy data into 'dat'
dat <- bt.chalifour.2021
tibble::tibble(dat)
#> # A tibble: 91 × 8
#>    fishid habitat   forklength_mm side  sr_edge ba_edge sr_core ba_core
#>     <int> <chr>             <int> <chr>   <dbl>   <dbl>   <dbl>   <dbl>
#>  1    762 Marsh                40 L       0.867   1.74    1.30    0.133
#>  2    767 Marsh                44 L       1.55    1.08    1.33    0.677
#>  3    933 Marsh                42 L       1.05    1.47    1.67    0.161
#>  4   4973 Marsh                63 L       0.775   1.71    0.827   0.522
#>  5   4985 Marsh                48 L       1.84    0.294   1.35    0.208
#>  6   4990 Sand flat            71 L       2.27    0.200   1.21    0.521
#>  7   4991 Sand flat            63 L       0.950   0.685   1.21    0.441
#>  8   4992 Sand flat            58 L       1.19    0.735   1.39    0.599
#>  9   4993 Sand flat            67 L       1.14    0.664   1.38    0.526
#> 10   5223 Sand flat            68 R       1.81    0.660   1.40    0.423
#> # … with 81 more rows
…
