Studies of spring-run chinook salmon life history diversity — bt.cordoleani.2021 • MFishBTdat
…
    Author

    Liuyong Ding, ly_ding@126.com

    Concepts

    otolith, isotopic ratios, Sr8786

    Examples

### copy data into 'dat'
dat <- bt.cordoleani.2021
tibble::tibble(dat)
#> # A tibble: 2,969 × 9
#>    sample   year watershed  distance otoSr     SE1   SrV SrVcol reartype              
#>    <chr>   <int> <chr>         <dbl> <dbl>   <dbl> <dbl>  <dbl> <chr>                 
#>  1 DC07_01  2007 Deer Creek     26.3 0.707 0.00009  1.02  41.3  IntermediateOutmigrant
#>  2 DC07_01  2007 Deer Creek     82.5 0.707 0.00008  0.91  23.8  IntermediateOutmigrant
#>  3 DC07_01  2007 Deer Creek    150.  0.706 0.00012  0.92  25.4  IntermediateOutmigrant
#>  4 DC07_01  2007 Deer Creek    203.  0.705 0.00013  0.76   0    IntermediateOutmigrant
#>  5 DC07_01  2007 Deer Creek    268.  0.705 0.00012  0.93  27.0  IntermediateOutmigrant
#>  6 DC07_01  2007 Deer Creek    293.  0.704 0.00012  1.13  58.7  IntermediateOutmigrant
#>  7 DC07_01  2007 Deer Creek    328.  0.704 0.00012  0.8    6.35 IntermediateOutmigrant
#>  8 DC07_01  2007 Deer Creek    358.  0.704 0.00012  0.87  17.5  IntermediateOutmigrant
#>  9 DC07_01  2007 Deer Creek    387.  0.705 0.00008  0.79   4.76 IntermediateOutmigrant
#> 10 DC07_01  2007 Deer Creek    408.  0.704 0.00014  0.78   3.17 IntermediateOutmigrant
#> # … with 2,959 more rows
…
