Otolith chemistry chronicles life histories of coastal lagoon fishes — bt.feyrer.2020 • MFishBTdat
…
    Author

    Liuyong Ding, ly_ding@126.com

    Concepts

    otolith, trace element, Sr/Ca, Mn/Ca

    Examples

### copy data into 'dat'
dat <- bt.feyrer.2020
tibble::tibble(dat)
#> # A tibble: 5,734 × 11
#>    fish_id distance   value element common_name  scientific_name location date  standard_length weight
#>      <int>    <int>   <dbl> <chr>   <chr>        <chr>           <chr>    <chr>           <int>  <dbl>
#>  1       6        0 0.00389 Sr_Ca   Tidewater G… " Eucyclogobiu… Rodeo L… 8/16…              38   0.64
#>  2       6        1 0.00395 Sr_Ca   Tidewater G… " Eucyclogobiu… Rodeo L… 8/16…              38   0.64
#>  3       6        2 0.00393 Sr_Ca   Tidewater G… " Eucyclogobiu… Rodeo L… 8/16…              38   0.64
#>  4       6        3 0.00393 Sr_Ca   Tidewater G… " Eucyclogobiu… Rodeo L… 8/16…              38   0.64
#>  5       6        4 0.00395 Sr_Ca   Tidewater G… " Eucyclogobiu… Rodeo L… 8/16…              38   0.64
#>  6       6        5 0.00405 Sr_Ca   Tidewater G… " Eucyclogobiu… Rodeo L… 8/16…              38   0.64
#>  7       6        6 0.00402 Sr_Ca   Tidewater G… " Eucyclogobiu… Rodeo L… 8/16…              38   0.64
#>  8       6        7 0.00398 Sr_Ca   Tidewater G… " Eucyclogobiu… Rodeo L… 8/16…              38   0.64
#>  9       6        8 0.00394 Sr_Ca   Tidewater G… " Eucyclogobiu… Rodeo L… 8/16…              38   0.64
#> 10       6        9 0.00411 Sr_Ca   Tidewater G… " Eucyclogobiu… Rodeo L… 8/16…              38   0.64
#> # ℹ 5,724 more rows
#> # ℹ 1 more variable: otolith_radius <dbl>
…
