Reconstructing habitats occupied of Clear Lake Hitch — bt.feyrer.2019 • MFishBTdat
…
    Author

    Liuyong Ding, ly_ding@126.com

    Concepts

    otolith, isotopic ratios, Sr8786

    Examples

### copy data into 'dat'
dat <- bt.feyrer.2019
tibble::tibble(dat)
#> # A tibble: 2,007 × 11
#>    fish_id      distance sr8786 sr8786_norm standar_error  sr_v date      lattitude longitude length weight
#>    <chr>           <dbl>  <dbl>       <dbl>         <dbl> <dbl> <chr>         <dbl>     <dbl>  <int>  <int>
#>  1 CLH_2017_001     9.97  0.707       0.707     0.000117   3.03 7/20/2017      39.0     -123.    280    425
#>  2 CLH_2017_001    30.4   0.706       0.707     0.0000649  3.52 7/20/2017      39.0     -123.    280    425
#>  3 CLH_2017_001    42.1   0.707       0.707     0.0000982  3.10 7/20/2017      39.0     -123.    280    425
#>  4 CLH_2017_001    65.7   0.706       0.706     0.0000614  4.52 7/20/2017      39.0     -123.    280    425
#>  5 CLH_2017_001    67.8   0.706       0.706     0.0000598  4.30 7/20/2017      39.0     -123.    280    425
#>  6 CLH_2017_001   113.    0.706       0.706     0.000104   4.47 7/20/2017      39.0     -123.    280    425
#>  7 CLH_2017_001   156.    0.706       0.706     0.000077   4.23 7/20/2017      39.0     -123.    280    425
#>  8 CLH_2017_001   191.    0.706       0.706     0.0000489  4.26 7/20/2017      39.0     -123.    280    425
#>  9 CLH_2017_001   234.    0.706       0.706     0.0000688  4.11 7/20/2017      39.0     -123.    280    425
#> 10 CLH_2017_001   273.    0.706       0.706     0.0000814  4.03 7/20/2017      39.0     -123.    280    425
#> # … with 1,997 more rows
…
