Coupling biogeochemical tracers with fish growth — bt.grammer.2017 • MFishBTdat
…
    Author

    Liuyong Ding, ly_ding@126.com

    Concepts

    otolith, bulk elements, Sr/Ca, Na/Ca, Ba/Ca, Mg/Ca, Li/Ca

    Examples

### copy data into 'dat'
dat <- bt.grammer.2017
tibble::tibble(dat)
#> # A tibble: 2,688 × 14
#>    id_code age_years_cap age_month…¹ month…² fish_id month   age f_month growth sr_ca  na_ca ba_ca mg_ca li_ca
#>    <chr>           <int>       <int>   <int> <chr>   <int> <int>   <int>  <dbl> <dbl>  <dbl> <dbl> <dbl> <dbl>
#>  1 HPS.004            15         181     253 HPS.004    86    14      86   25.7 2968. 13073.  2.64  63.9 11.5 
#>  2 HPS.004            15         181     253 HPS.004    95    23      95   24.1 2933. 13944.  1.53  86.4  7.72
#>  3 HPS.004            15         181     253 HPS.004    96    24      96   22.2 3175. 12527.  1.66  65.3  6.86
#>  4 HPS.004            15         181     253 HPS.004    97    25      97   21.4 3268. 11409.  1.52  49.7  6.52
#>  5 HPS.004            15         181     253 HPS.004    98    26      98   17.6 3338. 11384.  1.53  44.9  6.13
#>  6 HPS.004            15         181     253 HPS.004    99    27      99   17.5 3299. 11993.  1.34  43.4  7.93
#>  7 HPS.004            15         181     253 HPS.004   100    28     100   15.6 2888. 11756.  1.16  43.1  7.90
#>  8 HPS.004            15         181     253 HPS.004   101    29     101   14.8 2892. 12946.  1.14  53.9  6.87
#>  9 HPS.004            15         181     253 HPS.004   102    30     102   14.8 2852. 13550.  1.14  52.7  6.82
#> 10 HPS.004            15         181     253 HPS.004   103    31     103   14.0 2829. 13177.  1.13  49.8  7.11
#> # … with 2,678 more rows, and abbreviated variable names ¹​age_month_cap, ²​month_code_cap
…
