Low interbasin connectivity in a facultatively diadromous fish — bt.hughes.2014 • MFishBTdat
…
    Author

    Liuyong Ding, ly_ding@126.com

    Concepts

    otolith, isotopic ratios, Sr8786

    Examples

### copy data into 'dat'
dat <- bt.hughes.2014
tibble::tibble(dat)
#> # A tibble: 8,834 × 4
#>    fish_code distance oto_sr8786 river  
#>        <int>    <dbl>      <dbl> <chr>  
#>  1      3065      0        0.709 Glenelg
#>  2      3065      6.6      0.710 Glenelg
#>  3      3065     13.2      0.710 Glenelg
#>  4      3065     19.8      0.710 Glenelg
#>  5      3065     26.4      0.710 Glenelg
#>  6      3065     33        0.710 Glenelg
#>  7      3065     39.6      0.710 Glenelg
#>  8      3065     46.2      0.710 Glenelg
#>  9      3065     52.8      0.710 Glenelg
#> 10      3065     59.4      0.710 Glenelg
#> # … with 8,824 more rows
…
