Unravelling the life history of Amazonian fishes — bt.hermann.2016 • MFishBTdat
…
    Author

    Liuyong Ding, ly_ding@126.com

    Concepts

    otolith, bulk elements, Sr/Ca, Mn/Ca, Ba/Ca

    Examples

### copy data into 'dat'
dat <- bt.hermann.2016
tibble::tibble(dat)
#> # A tibble: 7,035 × 6
#>    sampleid species                      distance    value oto_element locality
#>    <chr>    <chr>                           <dbl>    <dbl> <chr>       <chr>   
#>  1 BR1      Brachyplatystoma rousseauxii     0     487371. Ca          Ecuador 
#>  2 BR1      Brachyplatystoma rousseauxii     7.59  827141. Ca          Ecuador 
#>  3 BR1      Brachyplatystoma rousseauxii    15.2  1025308  Ca          Ecuador 
#>  4 BR1      Brachyplatystoma rousseauxii    22.8   476471. Ca          Ecuador 
#>  5 BR1      Brachyplatystoma rousseauxii    30.4   860977. Ca          Ecuador 
#>  6 BR1      Brachyplatystoma rousseauxii    37.9   638388  Ca          Ecuador 
#>  7 BR1      Brachyplatystoma rousseauxii    45.5   665656. Ca          Ecuador 
#>  8 BR1      Brachyplatystoma rousseauxii    53.1   609487. Ca          Ecuador 
#>  9 BR1      Brachyplatystoma rousseauxii    60.7   759480. Ca          Ecuador 
#> 10 BR1      Brachyplatystoma rousseauxii    68.3   509173. Ca          Ecuador 
#> # … with 7,025 more rows
…
