Investigating natal philopatry in Hickory Shad using otolith chemistry — bt.hill.2020 • MFishBTdat
…
    Author

    Liuyong Ding, ly_ding@126.com

    Concepts

    otolith, trace element, Sr/Ca, Mn/Ca, Mg/Ca, Ba/Ca, Pb/Ca, Cu/Ca

    Examples

### copy data into 'dat'
dat <- bt.hill.2020
tibble::tibble(dat)
#> # A tibble: 266,731 × 16
#>    river parent_river estuary state capt_yr fishno sex   elapsed_time distance mg_ca mn_ca cu_ca zn_ca
#>    <chr> <chr>        <chr>   <chr>   <int>  <int> <chr>        <dbl>    <dbl> <dbl> <dbl> <dbl> <dbl>
#>  1 Alt   Alt          AltSd   GA       2017    786 F              0        0    0.05  0.43  0.63  0.04
#>  2 Alt   Alt          AltSd   GA       2017    786 F              0.8      2.4  0.04  0.91  0.8   0.38
#>  3 Alt   Alt          AltSd   GA       2017    786 F              1.6      4.8  0.05  0.5   0.4   1   
#>  4 Alt   Alt          AltSd   GA       2017    786 F              2.4      7.2  0.03  0.27  0.5  -0.03
#>  5 Alt   Alt          AltSd   GA       2017    786 F              3.2      9.6  0.04  0.39  0.39  0.44
#>  6 Alt   Alt          AltSd   GA       2017    786 F              4       12    0.02  0.57  0.18 -0.16
#>  7 Alt   Alt          AltSd   GA       2017    786 F              4.8     14.4  0.03  0.66  0.54  0.38
#>  8 Alt   Alt          AltSd   GA       2017    786 F              5.6     16.8  0.02  0.64  0.14  0.75
#>  9 Alt   Alt          AltSd   GA       2017    786 F              6.4     19.2  0.03  0.8   0.1  -0.13
#> 10 Alt   Alt          AltSd   GA       2017    786 F              7.2     21.6  0.03  0.37  0.43  0.16
#> # ℹ 266,721 more rows
#> # ℹ 3 more variables: sr_ca <dbl>, ba_ca <dbl>, pb_ca <dbl>
…
