Tracking long-distance migration of marine fishes using stable isotope — bt.matsubayashi.2020 • MFishBTdat
…
    Author

    Liuyong Ding, ly_ding@126.com

    Concepts

    vertebra, isotopic ratios, d13C, d15N

    Examples

### copy data into 'dat'
dat <- bt.matsubayashi.2020
tibble::tibble(dat)
#> # A tibble: 80 × 11
#>    id    river             year month   day sex     age fork_length section_no  d13c  d15n
#>    <chr> <chr>            <int> <int> <int> <chr> <int>       <int>      <int> <dbl> <dbl>
#>  1 OK1   Nukkibetsu River  2016    12    29 NA       NA          NA          1 -16.6 10.3 
#>  2 OK1   Nukkibetsu River  2016    12    29 NA       NA          NA          2 -16.7 10.4 
#>  3 OK1   Nukkibetsu River  2016    12    29 NA       NA          NA          3 -17.1 10.5 
#>  4 OK1   Nukkibetsu River  2016    12    29 NA       NA          NA          4 -17.0 10.5 
#>  5 OK1   Nukkibetsu River  2016    12    29 NA       NA          NA          5 -17.7  9.38
#>  6 OK1   Nukkibetsu River  2016    12    29 NA       NA          NA          6 -18.2  8.85
#>  7 OK1   Nukkibetsu River  2016    12    29 NA       NA          NA          7 -17.1  9.77
#>  8 OK1   Nukkibetsu River  2016    12    29 NA       NA          NA          8 -18.4  8.65
#>  9 OK1   Nukkibetsu River  2016    12    29 NA       NA          NA          9 -18.5  8.85
#> 10 OK1   Nukkibetsu River  2016    12    29 NA       NA          NA         10 -15.5 12.7 
#> # … with 70 more rows
…
