Otolith geochemistry reflects life histories of Pacific bluefin tuna — bt.mohan.2022 • MFishBTdat
…
    Author

    Liuyong Ding, ly_ding@126.com

    Concepts

    otolith, bulk elements, Ba/Ca, Li/Ca, Mg/Ca, Mn/Ca, Sr/Ca, Zn/Ca

    Examples

### copy data into 'dat'
dat <- bt.mohan.2022
tibble::tibble(dat)
#> # A tibble: 246,375 × 11
#>    pbt_id distance value elements     date ocean        region                    sex      fl   age gg_weight
#>    <chr>     <dbl> <dbl> <chr>       <int> <chr>        <chr>                     <chr> <int> <int>     <int>
#>  1 EP01       0     3.20 Li_Ca    20170920 East Pacific San Deigo, Califronia USA M       197     9       156
#>  2 EP01       2.02  3.42 Li_Ca    20170920 East Pacific San Deigo, Califronia USA M       197     9       156
#>  3 EP01       4.03  3.67 Li_Ca    20170920 East Pacific San Deigo, Califronia USA M       197     9       156
#>  4 EP01       6.05  3.89 Li_Ca    20170920 East Pacific San Deigo, Califronia USA M       197     9       156
#>  5 EP01       8.06  3.89 Li_Ca    20170920 East Pacific San Deigo, Califronia USA M       197     9       156
#>  6 EP01      10.1   4.10 Li_Ca    20170920 East Pacific San Deigo, Califronia USA M       197     9       156
#>  7 EP01      12.1   3.89 Li_Ca    20170920 East Pacific San Deigo, Califronia USA M       197     9       156
#>  8 EP01      14.1   3.92 Li_Ca    20170920 East Pacific San Deigo, Califronia USA M       197     9       156
#>  9 EP01      16.1   3.73 Li_Ca    20170920 East Pacific San Deigo, Califronia USA M       197     9       156
#> 10 EP01      18.1   3.64 Li_Ca    20170920 East Pacific San Deigo, Califronia USA M       197     9       156
#> # … with 246,365 more rows
…
