Vertebral sclerochronology in shark* — bt.mohan.2018 • MFishBTdat
…
    Author

    Liuyong Ding, ly_ding@126.com

    Concepts

    vertebrae, bulk elements, Ba/Ca, Mn/Ca, Sr/Ca

    Examples

### copy data into 'dat'
dat <- bt.mohan.2018
tibble::tibble(dat)
#> # A tibble: 11,118 × 12
#>    fish_id vert_sample_id distance value element common_name scientifi…¹ recap…² recap…³ recap…⁴ recap…⁵ sex  
#>    <chr>   <chr>             <dbl> <dbl> <chr>   <chr>       <chr>         <dbl>   <dbl> <chr>     <int> <chr>
#>  1 A038423 D1                 34.7  16.3 Mn_Ca   mako shark  Isurus oxy…    30.1   -116. 2008-1…     157 M    
#>  2 A038423 D1                 59.9  15.3 Mn_Ca   mako shark  Isurus oxy…    30.1   -116. 2008-1…     157 M    
#>  3 A038423 D1                101.   14.1 Mn_Ca   mako shark  Isurus oxy…    30.1   -116. 2008-1…     157 M    
#>  4 A038423 D1                 99.0  13.2 Mn_Ca   mako shark  Isurus oxy…    30.1   -116. 2008-1…     157 M    
#>  5 A038423 D1                 99.0  12.3 Mn_Ca   mako shark  Isurus oxy…    30.1   -116. 2008-1…     157 M    
#>  6 A038423 D1                228.   12.7 Mn_Ca   mako shark  Isurus oxy…    30.1   -116. 2008-1…     157 M    
#>  7 A038423 D1                179.   12.0 Mn_Ca   mako shark  Isurus oxy…    30.1   -116. 2008-1…     157 M    
#>  8 A038423 D1                350.   13.0 Mn_Ca   mako shark  Isurus oxy…    30.1   -116. 2008-1…     157 M    
#>  9 A038423 D1                443.   11.8 Mn_Ca   mako shark  Isurus oxy…    30.1   -116. 2008-1…     157 M    
#> 10 A038423 D1                495.   11.3 Mn_Ca   mako shark  Isurus oxy…    30.1   -116. 2008-1…     157 M    
#> # … with 11,108 more rows, and abbreviated variable names ¹​scientific_name, ²​recapture_lat, ³​recapture_long,
#> #   ⁴​recapture_date, ⁵​recapture_fl
…
