Reconstructing the stable isotope chronology of teleost fishes — bt.matsubayashi.2017 • MFishBTdat
…
    Author

    Liuyong Ding, ly_ding@126.com

    Concepts

    otolith, vertebra, bulk elements, isotopic ratios, Sr8786, Sr/Ca, d34S

    Examples

### copy data into 'dat'
dat <- bt.matsubayashi.2017
tibble::tibble(dat)
#> # A tibble: 86 × 8
#>    fish_samples biomineral_archives biogeochemical_tags element_ratio section    distance mean_values    sd
#>    <chr>        <chr>               <chr>               <chr>         <chr>         <int>       <dbl> <dbl>
#>  1 OM-01        vertebra            isotopic ratios     d34S          Section-01        1        12.7  0.41
#>  2 OM-01        vertebra            isotopic ratios     d34S          Section-02        2        13.9  0.41
#>  3 OM-01        vertebra            isotopic ratios     d34S          Section-03        3        17.2  0.41
#>  4 OM-01        vertebra            isotopic ratios     d34S          Section-04        4        15.5  0.41
#>  5 OM-01        vertebra            isotopic ratios     d34S          Section-05        5        17.5  0.41
#>  6 OM-01        vertebra            isotopic ratios     d34S          Section-06        6        18.1  0.41
#>  7 OM-01        vertebra            isotopic ratios     d34S          Section-07        7        18.8  0.41
#>  8 OM-01        vertebra            isotopic ratios     d34S          Section-08        8        18.9  0.41
#>  9 OM-01        vertebra            isotopic ratios     d34S          Section-09        9        19    0.41
#> 10 OM-01        vertebra            isotopic ratios     d34S          Section-10       10        18.9  0.41
#> # … with 76 more rows
…
