Quantifyingmigratory capacity and dispersal of the invasive tench — bt.morissette.2021 • MFishBTdat
…
    Author

    Liuyong Ding, ly_ding@126.com

    Concepts

    otolith, bulk elements, Sr/ca, Ba/ca, Mg/ca, Mn/ca, Na/ca, K/ca, Fe/ca

    Examples

### copy data into 'dat'
dat <- bt.morissette.2021
tibble::tibble(dat)
#> # A tibble: 31,143 × 11
#>    id      site           zone  distance_core  srca    baca  mgca  mnca  naca   kca  feca
#>    <chr>   <chr>          <chr>         <dbl> <dbl>   <dbl> <dbl> <dbl> <dbl> <dbl> <dbl>
#>  1 TITI-01 Haut-Richelieu C              0    0.561 0.00317  1.73 0.142  7.06 0.355 0.334
#>  2 TITI-01 Haut-Richelieu C              5.34 0.563 0.00355  1.65 0.149  6.81 0.336 0.351
#>  3 TITI-01 Haut-Richelieu C             10.7  0.562 0.00338  1.65 0.124  6.47 0.340 0.324
#>  4 TITI-01 Haut-Richelieu C             16.0  0.511 0.00367  1.54 0.130  5.90 0.347 0.329
#>  5 TITI-01 Haut-Richelieu C             21.4  0.545 0.00344  1.71 0.148  6.35 0.335 0.301
#>  6 TITI-01 Haut-Richelieu C             26.7  0.532 0.00398  1.63 0.136  6.93 0.338 0.314
#>  7 TITI-01 Haut-Richelieu C             32.0  0.499 0.00353  1.67 0.138  6.71 0.332 0.326
#>  8 TITI-01 Haut-Richelieu C             37.4  0.556 0.00390  1.56 0.143  6.18 0.332 0.298
#>  9 TITI-01 Haut-Richelieu C             42.7  0.572 0.00474  1.73 0.150  6.94 0.347 0.339
#> 10 TITI-01 Haut-Richelieu C             48.1  0.489 0.00385  1.75 0.140  6.66 0.334 0.310
#> # … with 31,133 more rows
…
