Studies of identifying the geographical origin of fish — bt.pereira.2019 • MFishBTdat
…
    Author

    Liuyong Ding, ly_ding@126.com

    Concepts

    otolith, isotopic ratios, Sr8786

    Examples

### copy data into 'dat'
dat <- bt.pereira.2019
tibble::tibble(dat)
#> # A tibble: 4,148 × 5
#>    specimen_code distance oto_sr8786 fish_origin region        
#>    <chr>            <int>      <dbl> <chr>       <chr>         
#>  1 I1                   0      0.710 wild        Central Amazon
#>  2 I1                   5      0.710 wild        Central Amazon
#>  3 I1                  10      0.710 wild        Central Amazon
#>  4 I1                  15      0.710 wild        Central Amazon
#>  5 I1                  20      0.711 wild        Central Amazon
#>  6 I1                  25      0.710 wild        Central Amazon
#>  7 I1                  30      0.710 wild        Central Amazon
#>  8 I1                  35      0.710 wild        Central Amazon
#>  9 I1                  40      0.710 wild        Central Amazon
#> 10 I1                  45      0.710 wild        Central Amazon
#> # … with 4,138 more rows
…
