Eye-lens isotopes of teleost and elasmobranch — bt.quaeckdavies.2018 • MFishBTdat
…
    Liuyong Ding, ly_ding@126.com

    Concepts

    otolith, bulk elements, Sr/Ca

    Examples

### copy data into 'dat'
dat <- bt.quaeckdavies.2018

### TL_LD data frame
tibble::tibble(dat$TL_LD)
#> # A tibble: 204 × 3
#>    species              tl lens_d
#>    <chr>             <dbl>  <dbl>
#>  1 Squalus acanthias   870   9   
#>  2 Squalus acanthias  1100  13   
#>  3 Squalus acanthias   770   9.5 
#>  4 Squalus acanthias   840  10   
#>  5 Squalus acanthias   650   8   
#>  6 Squalus acanthias  1070  11.8 
#>  7 Squalus acanthias   780  10   
#>  8 Squalus acanthias   830  10.2 
#>  9 Squalus acanthias   400   4.75
#> 10 Squalus acanthias   530   7.5 
#> # … with 194 more rows

### Teleost_lensCore data frame
tibble::tibble(dat$Teleost_lensCore)
#> # A tibble: 29 × 3
#>    species                    d13c  d15n
#>    <chr>                     <dbl> <dbl>
#>  1 Coryphaenoides rupesitris -20.6  4.72
#>  2 Coryphaenoides rupesitris -17.9  6.74
#>  3 Coryphaenoides rupesitris -19.9  6.06
#>  4 Coryphaenoides rupesitris -19.5  7.46
#>  5 Coryphaenoides rupesitris -19.7  6.49
#>  6 Coryphaenoides rupesitris -18.3  4.62
#>  7 Coryphaenoides rupesitris -19.5  7.97
#>  8 Coryphaenoides rupesitris -19.6  6.74
#>  9 Coryphaenoides rupesitris -19.1  5.89
#> 10 Coryphaenoides rupesitris -20.5  6.36
#> # … with 19 more rows

### CrupL_M data frame
tibble::tibble(dat$CrupL_M)
#> # A tibble: 22 × 4
#>    tissue  d13c  d15n species                  
#>    <chr>  <dbl> <dbl> <chr>                    
#>  1 Lens   -20.6  4.93 Coryphaenoides rupesitris
#>  2 Lens   -17.9  6.63 Coryphaenoides rupesitris
#>  3 Lens   -19.9  6.20 Coryphaenoides rupesitris
#>  4 Lens   -19.5  7.55 Coryphaenoides rupesitris
#>  5 Lens   -19.7  6.60 Coryphaenoides rupesitris
#>  6 Lens   -18.3  4.57 Coryphaenoides rupesitris
#>  7 Lens   -19.5  8.05 Coryphaenoides rupesitris
#>  8 Lens   -19.6  6.84 Coryphaenoides rupesitris
#>  9 Lens   -19.1  5.93 Coryphaenoides rupesitris
#> 10 Lens   -20.5  6.57 Coryphaenoides rupesitris
#> # … with 12 more rows

### Acarbo_lens data frame
tibble::tibble(dat$Acarbo_lens)
#> # A tibble: 73 × 10
#>    fish_id sample  d13c  d15n radius1 radius2 diam1 diam2 recovered_length species        
#>    <chr>   <chr>  <dbl> <dbl>   <dbl>   <dbl> <dbl> <dbl>            <dbl> <chr>          
#>  1 C512    C512B  -18.4  15.2    -3.5     4.1   7     8.2             612. Aphanopus carbo
#>  2 C512    C512C  -18.7  14.6    -2.8     3.4   5.6   6.8             536. Aphanopus carbo
#>  3 C512    C512D  -19.0  14.2    -2.1     2.7   4.2   5.4             460. Aphanopus carbo
#>  4 C512    C512E  -19.0  13.5    -1.4     2     2.8   4               384. Aphanopus carbo
#>  5 C512    C512F  -19.4  12.2    -0.7     1.3   1.4   2.6             309. Aphanopus carbo
#>  6 C512    C512G  -19.8  10.5     0       0.6   0     1.2             233. Aphanopus carbo
#>  7 C512    C512H  -19.4  12.6     0.7     1.3   1.4   2.6             309. Aphanopus carbo
#>  8 C512    C512I  -18.7  13.4     1.4     2     2.8   4               384. Aphanopus carbo
#>  9 C512    C512J  -19.0  14.0     2.1     2.7   4.2   5.4             460. Aphanopus carbo
#> 10 C405    C405A  -17.9  15.2    -3.5     4.1   7     8.2             612. Aphanopus carbo
#> # … with 63 more rows

### Embryo data frame
tibble::tibble(dat$Embryo)
#> # A tibble: 38 × 6
#>       id tissue  d15n d13cc d13c2 species          
#>    <int> <chr>  <dbl> <dbl> <dbl> <chr>            
#>  1    11 M       12.7 -15.7 -16.2 Squalus acanthias
#>  2    16 M       11.2 -16.0 -16.6 Squalus acanthias
#>  3    28 M       13.8 -15.8 -16.4 Squalus acanthias
#>  4    32 M       11.6 -16.5 -17.0 Squalus acanthias
#>  5    36 M       14.3 -15.4 -15.9 Squalus acanthias
#>  6    37 M       12.0 -16.3 -16.8 Squalus acanthias
#>  7    38 M       11.7 -16.0 -16.4 Squalus acanthias
#>  8    39 M       12.5 -15.5 -16.1 Squalus acanthias
#>  9    54 M       11.7 -15.8 -16.3 Squalus acanthias
#> 10    56 M       12   -16.1 -16.6 Squalus acanthias
#> # … with 28 more rows
…
