Shark tooth collagen stable isotopes as ecological proxies — bt.shipley.2021 • MFishBTdat
…
    Author

    Liuyong Ding, ly_ding@126.com

    Concepts

    tooth, stable isotope, d13c, d15n

    Examples

### copy data into 'dat'
dat <- bt.shipley.2021
tibble::tibble(dat)
#> # A tibble: 33 × 5
#>    fish_id             jaw_position file_position  d15n  d13c
#>    <chr>               <chr>                <int> <dbl> <dbl>
#>  1 Shortfin mako shark Bottom Jaw               1  12.8 -13.4
#>  2 Shortfin mako shark Bottom Jaw               3  12.5 -13.4
#>  3 Shortfin mako shark Bottom Jaw               5  11.9 -13.3
#>  4 Shortfin mako shark Bottom Jaw               7  11.1 -13.4
#>  5 Shortfin mako shark Top Jaw                  1  13.4 -13.8
#>  6 Shortfin mako shark Top Jaw                  3  12.8 -13.6
#>  7 Shortfin mako shark Top Jaw                  5  13.5 -14.1
#>  8 Shortfin mako shark Top Jaw                  7  12.2 -13.3
#>  9 Shortfin mako shark Top Jaw                  9  12.1 -13.6
#> 10 Sandbar Shark #1    Bottom Jaw               1  15.4 -14.1
#> # ℹ 23 more rows
…
