Life history responses to climate variability in sardine populations — bt.sakamoto.2022 • MFishBTdat
…
    Author

    Liuyong Ding, ly_ding@126.com

    Concepts

    otolith, stable isotope, d13C, d18O

    Examples

### copy data into 'dat'
dat <- bt.sakamoto.2022
tibble::tibble(dat)
#> # A tibble: 1,558 × 7
#>    region_id fish_id          year_class station_id age_range  d13c    d18o
#>    <chr>     <chr>                 <int> <chr>      <chr>     <dbl>   <dbl>
#>  1 JP        2015_9_HH_T9_1R        2015 2015_T9    B         -6.93 -0.240 
#>  2 JP        2015_9_HH_T9_1R        2015 2015_T9    C         -7.90 -0.148 
#>  3 JP        2015_9_HH_T9_1R        2015 2015_T9    D         -7.77 -0.0269
#>  4 JP        2015_9_HH_T9_1R        2015 2015_T9    E         -6.47 -0.113 
#>  5 JP        2015_9_HH_T9_1R        2015 2015_T9    F         -5.76  0.154 
#>  6 JP        2015_9_HH_T9_1R        2015 2015_T9    G         -5.31  0.294 
#>  7 JP        2015_9_HH_T9_10L       2015 2015_T9    A         -7.60 -0.266 
#>  8 JP        2015_9_HH_T9_10L       2015 2015_T9    B         -8.57 -0.201 
#>  9 JP        2015_9_HH_T9_10L       2015 2015_T9    C         -8.86 -0.172 
#> 10 JP        2015_9_HH_T9_10L       2015 2015_T9    D         -7.32  0.123 
#> # ℹ 1,548 more rows
…
