Reconstructing the migratory behavior of juvenile chinook salmon — bt.sturrock.2015 • MFishBTdat
…
    Author

    Liuyong Ding, ly_ding@126.com

    Concepts

    otolith, stable isotope, Sr8786

    Examples

### copy data into 'dat'
dat <- bt.sturrock.2015
tibble::tibble(dat)
#> # A tibble: 3,654 × 11
#>    sample_id collection_date length   age sex   outmigration_year distance oto_sr8786 oto_sr8786_2se
#>    <chr>     <chr>            <int> <int> <chr>             <int>    <dbl>      <dbl>          <dbl>
#>  1 SR11234   2001-11-30          58     2 F                  2000     30.7      0.708       0.0003  
#>  2 SR11234   2001-11-30          58     2 F                  2000     75.3      0.708       0.000178
#>  3 SR11234   2001-11-30          58     2 F                  2000    125.       0.708       0.000108
#>  4 SR11234   2001-11-30          58     2 F                  2000    177.       0.707       0.000088
#>  5 SR11234   2001-11-30          58     2 F                  2000    229.       0.707       0.000116
#>  6 SR11234   2001-11-30          58     2 F                  2000    276.       0.707       0.00007 
#>  7 SR11234   2001-11-30          58     2 F                  2000    324.       0.707       0.000078
#>  8 SR11234   2001-11-30          58     2 F                  2000    376.       0.708       0.000188
#>  9 SR11234   2001-11-30          58     2 F                  2000    423.       0.708       0.000196
#> 10 SR11234   2001-11-30          58     2 F                  2000    470.       0.709       0.00017 
#> # ℹ 3,644 more rows
#> # ℹ 2 more variables: oto_sr_v <dbl>, laser_properties <chr>
…
