Unnatural selection of salmon life histories in a modified riverscape — bt.sturrock.2020 • MFishBTdat
…
    Author

    Liuyong Ding, ly_ding@126.com

    Concepts

    otolith, isotopic ratios, Sr8786

    Examples

### copy data into 'dat'
dat <- bt.sturrock.2020
tibble::tibble(dat)
#> # A tibble: 16,463 × 12
#>    Sample_ID   ASN Natal_region Otolith_r…¹ Otoli…²     SE2   SrV Outmi…³ Captu…⁴ Captu…⁵ Sex   CWT_no
#>    <chr>     <int> <chr>              <dbl>   <dbl>   <dbl> <dbl>   <int>   <int>   <int> <chr>  <int>
#>  1 SR11234   11234 ""                  30.7   0.708 3   e-4  3.45    2000      58       2 F         NA
#>  2 SR11234   11234 ""                  75.3   0.708 1.78e-4  3.03    2000      58       2 F         NA
#>  3 SR11234   11234 ""                 125.    0.708 1.08e-4  3.30    2000      58       2 F         NA
#>  4 SR11234   11234 ""                 177.    0.707 8.8 e-5  3.98    2000      58       2 F         NA
#>  5 SR11234   11234 ""                 229.    0.707 1.16e-4  3.37    2000      58       2 F         NA
#>  6 SR11234   11234 ""                 276.    0.707 7   e-5  3.79    2000      58       2 F         NA
#>  7 SR11234   11234 "y"                324.    0.707 7.8 e-5  3.87    2000      58       2 F         NA
#>  8 SR11234   11234 "y"                376.    0.708 1.88e-4  4.01    2000      58       2 F         NA
#>  9 SR11234   11234 "y"                423.    0.708 1.96e-4  3.84    2000      58       2 F         NA
#> 10 SR11234   11234 ""                 470.    0.709 1.7 e-4  3.78    2000      58       2 F         NA
#> # … with 16,453 more rows, and abbreviated variable names ¹​Otolith_radius_um, ²​Otolith_87Sr86Sr,
#> #   ³​Outmigration_year, ⁴​Capture_FL_cm, ⁵​Capture_Age
…
