Life history strategies of Mekong pangasiid catfishes* — bt.vu.2022a • MFishBTdat
…
    Author

    Liuyong Ding, ly_ding@126.com

    Concepts

    otolith, bulk elements, Ba/Ca, Sr/Ca

    Examples

### copy data into 'dat'
dat <- bt.vu.2022a
tibble::tibble(dat)
#> # A tibble: 27,522 × 13
#>    fish_id  species          dista…¹ value element techn…² sampl…³ longi…⁴ latit…⁵ length weight sex   secti…⁶
#>    <chr>    <chr>              <dbl> <dbl> <chr>   <chr>   <chr>     <dbl>   <dbl> <chr>   <dbl> <chr> <chr>  
#>  1 103-CLD2 Pangasius bocou…    1.71  2.81 Sr_Ca   LA-ICP… 2018-0…    106.    9.51 34        600 Unkn… Frontal
#>  2 103-CLD2 Pangasius bocou…    1.80  2.68 Sr_Ca   LA-ICP… 2018-0…    106.    9.51 34        600 Unkn… Frontal
#>  3 103-CLD2 Pangasius bocou…    7.86  2.56 Sr_Ca   LA-ICP… 2018-0…    106.    9.51 34        600 Unkn… Frontal
#>  4 103-CLD2 Pangasius bocou…    9.63  2.46 Sr_Ca   LA-ICP… 2018-0…    106.    9.51 34        600 Unkn… Frontal
#>  5 103-CLD2 Pangasius bocou…   14.5   2.34 Sr_Ca   LA-ICP… 2018-0…    106.    9.51 34        600 Unkn… Frontal
#>  6 103-CLD2 Pangasius bocou…   15.6   2.21 Sr_Ca   LA-ICP… 2018-0…    106.    9.51 34        600 Unkn… Frontal
#>  7 103-CLD2 Pangasius bocou…   23.6   2.05 Sr_Ca   LA-ICP… 2018-0…    106.    9.51 34        600 Unkn… Frontal
#>  8 103-CLD2 Pangasius bocou…   34.4   1.92 Sr_Ca   LA-ICP… 2018-0…    106.    9.51 34        600 Unkn… Frontal
#>  9 103-CLD2 Pangasius bocou…   42.6   1.83 Sr_Ca   LA-ICP… 2018-0…    106.    9.51 34        600 Unkn… Frontal
#> 10 103-CLD2 Pangasius bocou…   53.7   1.74 Sr_Ca   LA-ICP… 2018-0…    106.    9.51 34        600 Unkn… Frontal
#> # … with 27,512 more rows, and abbreviated variable names ¹​distance, ²​technology, ³​sampling_date, ⁴​longitude,
#> #   ⁵​latitude, ⁶​sectioning_plane
…
