Reconstructing fish histories using eye-lens isotopes — bt.wallace.2014 • MFishBTdat
…
    Author

    Liuyong Ding, ly_ding@126.com

    Concepts

    eye lenses, isotopic ratios, d13C, d15N

    Examples

### copy data into 'dat'
dat <- bt.wallace.2014
tibble::tibble(dat)
#> # A tibble: 131 × 10
#>    fish_id species              lens_layer  d15n  d13c lamina_radius lamina_mid_pt lamina_we…¹ resol…² lamin…³
#>      <int> <chr>                     <int> <dbl> <dbl>         <dbl>         <dbl>       <dbl> <chr>   <chr>  
#>  1      48 Lutjanus campechanus          1 10.6  -17.4            NA            NA          NA Low     NA     
#>  2      48 Lutjanus campechanus          2 11.1  -17.9            NA            NA          NA Low     NA     
#>  3      48 Lutjanus campechanus          3 10.6  -17.0            NA            NA          NA Low     NA     
#>  4      48 Lutjanus campechanus          4 10.8  -15.7            NA            NA          NA Low     NA     
#>  5      48 Lutjanus campechanus          5 11.8  -17.1            NA            NA          NA Low     NA     
#>  6      43 Lutjanus campechanus          1  9.94 -18.1            NA            NA          NA Low     NA     
#>  7      43 Lutjanus campechanus          2 10.7  -16.7            NA            NA          NA Low     NA     
#>  8      43 Lutjanus campechanus          3 11.5  -17.0            NA            NA          NA Low     NA     
#>  9      43 Lutjanus campechanus          4 12.2  -17.3            NA            NA          NA Low     NA     
#> 10      46 Lutjanus campechanus          1 10.8  -17.9            NA            NA          NA Low     NA     
#> # … with 121 more rows, and abbreviated variable names ¹​lamina_weight, ²​resolution, ³​lamina_side
…
